%YAML 1.1
%TAG !u! tag:unity3d.com,2011:
--- !u!1045 &1
EditorBuildSettings:
  m_ObjectHideFlags: 0
  serializedVersion: 2
  m_Scenes:
  - enabled: 1
    path: Assets/Handjob/Scenes/Main Menui.unity
    guid: cd733698ce876cf46903289ac119a653
  - enabled: 1
    path: Assets/Handjob/Scenes/FactoryLevel.unity
    guid: 60a6c9df92f5bc540801a62caf563c67
  m_configObjects: {}
